Take-home Exercise 01 phase 2
…
Load required packages

pacman::p_load(tidyverse,dplyr,
               ggplot2, forcats, 
               scales,patchwork)

Import data

The data used in this exercise is the same as the data used in the Take-home Exercise 1

population_age_sex_2024 <- read_csv("respopagesex2024/respopagesex2024.csv")
population_age_sex_2024

# A tibble: 60,424 × 6
   PA         SZ                     Age   Sex       Pop  Time
   <chr>      <chr>                  <chr> <chr>   <dbl> <dbl>
 1 Ang Mo Kio Ang Mo Kio Town Centre 0     Males      10  2024
 2 Ang Mo Kio Ang Mo Kio Town Centre 0     Females    10  2024
 3 Ang Mo Kio Ang Mo Kio Town Centre 1     Males      10  2024
 4 Ang Mo Kio Ang Mo Kio Town Centre 1     Females    10  2024
 5 Ang Mo Kio Ang Mo Kio Town Centre 2     Males      10  2024
 6 Ang Mo Kio Ang Mo Kio Town Centre 2     Females    10  2024
 7 Ang Mo Kio Ang Mo Kio Town Centre 3     Males      10  2024
 8 Ang Mo Kio Ang Mo Kio Town Centre 3     Females    10  2024
 9 Ang Mo Kio Ang Mo Kio Town Centre 4     Males      30  2024
10 Ang Mo Kio Ang Mo Kio Town Centre 4     Females    10  2024
# ℹ 60,414 more rows
…
